transcript
do tcl1.do
# vsim work.TOP 
# Start time: 15:29:53 on Feb 23,2021
# Loading sv_std.std
# Loading work.TOP
# Loading work.OQPSK_MOD
# Loading work.MEM_SIGNAL_ROM
# Loading work.COUNT
# Loading work.SHIFT_Q
# Loading work.PRD
# ** Warning: (vsim-2685) [TFMPC] - Too few port connections for 'inst4'.  Expected 6, found 5.
#    Time: 0 ns  Iteration: 0  Instance: /TOP/mod/inst4 File: C:/intelFPGA/18.1/VRL/OQPSK_MOD/simulation/modelsim/OQPSK_MOD.sv Line: 33
# ** Warning: (vsim-3015) [PCDPC] - Port size (10) does not match connection size (1) for port 'LP'. The port definition is at: C:/intelFPGA/18.1/VRL/OQPSK_MOD/simulation/modelsim/SHIFT_Q.sv(8).
#    Time: 0 ns  Iteration: 0  Instance: /TOP/mod/inst4 File: C:/intelFPGA/18.1/VRL/OQPSK_MOD/simulation/modelsim/OQPSK_MOD.sv Line: 33
# ** Warning: (vsim-3722) C:/intelFPGA/18.1/VRL/OQPSK_MOD/simulation/modelsim/OQPSK_MOD.sv(33): [TFMPC] - Missing connection for port 'n'.
# ** Warning: (vsim-3015) [PCDPC] - Port size (14) does not match connection size (1) for port 'CNST'. The port definition is at: C:/intelFPGA/18.1/VRL/OQPSK_MOD/simulation/modelsim/PRD.sv(4).
#    Time: 0 ns  Iteration: 0  Instance: /TOP/mod/inst5 File: C:/intelFPGA/18.1/VRL/OQPSK_MOD/simulation/modelsim/OQPSK_MOD.sv Line: 34
# ** Warning: (vsim-3015) [PCDPC] - Port size (14) does not match connection size (1) for port 'IC'. The port definition is at: C:/intelFPGA/18.1/VRL/OQPSK_MOD/simulation/modelsim/PRD.sv(4).
#    Time: 0 ns  Iteration: 0  Instance: /TOP/mod/inst5 File: C:/intelFPGA/18.1/VRL/OQPSK_MOD/simulation/modelsim/OQPSK_MOD.sv Line: 34
# ** Warning: (vsim-3015) [PCDPC] - Port size (14) does not match connection size (1) for port 'QS'. The port definition is at: C:/intelFPGA/18.1/VRL/OQPSK_MOD/simulation/modelsim/PRD.sv(4).
#    Time: 0 ns  Iteration: 0  Instance: /TOP/mod/inst5 File: C:/intelFPGA/18.1/VRL/OQPSK_MOD/simulation/modelsim/OQPSK_MOD.sv Line: 34
# WARNING: No extended dataflow license exists
run
# ** Warning: (vsim-7) Failed to open readmem file "PI_Q.txt" in read mode.
# No such file or directory. (errno = ENOENT)    : C:/intelFPGA/18.1/VRL/OQPSK_MOD/simulation/modelsim/MEM_SIGNAL_ROM.sv(16)
#    Time: 0 ns  Iteration: 0  Instance: /TOP/mod/iq0
# ** Warning: (vsim-7) Failed to open readmem file "NI_Q.txt" in read mode.
# No such file or directory. (errno = ENOENT)    : C:/intelFPGA/18.1/VRL/OQPSK_MOD/simulation/modelsim/MEM_SIGNAL_ROM.sv(17)
#    Time: 0 ns  Iteration: 0  Instance: /TOP/mod/iq0
# ** Warning: (vsim-7) Failed to open readmem file "PI_Q.txt" in read mode.
# No such file or directory. (errno = ENOENT)    : C:/intelFPGA/18.1/VRL/OQPSK_MOD/simulation/modelsim/MEM_SIGNAL_ROM.sv(16)
#    Time: 0 ns  Iteration: 0  Instance: /TOP/mod/iq1
# ** Warning: (vsim-7) Failed to open readmem file "NI_Q.txt" in read mode.
# No such file or directory. (errno = ENOENT)    : C:/intelFPGA/18.1/VRL/OQPSK_MOD/simulation/modelsim/MEM_SIGNAL_ROM.sv(17)
#    Time: 0 ns  Iteration: 0  Instance: /TOP/mod/iq1
# ** Warning: (vsim-7) Failed to open readmem file "PI_Q.txt" in read mode.
# No such file or directory. (errno = ENOENT)    : C:/intelFPGA/18.1/VRL/OQPSK_MOD/simulation/modelsim/MEM_SIGNAL_ROM.sv(16)
#    Time: 0 ns  Iteration: 0  Instance: /TOP/mod/sc0
# ** Warning: (vsim-7) Failed to open readmem file "NI_Q.txt" in read mode.
# No such file or directory. (errno = ENOENT)    : C:/intelFPGA/18.1/VRL/OQPSK_MOD/simulation/modelsim/MEM_SIGNAL_ROM.sv(17)
#    Time: 0 ns  Iteration: 0  Instance: /TOP/mod/sc0
# ** Warning: (vsim-7) Failed to open readmem file "PI_Q.txt" in read mode.
# No such file or directory. (errno = ENOENT)    : C:/intelFPGA/18.1/VRL/OQPSK_MOD/simulation/modelsim/MEM_SIGNAL_ROM.sv(16)
#    Time: 0 ns  Iteration: 0  Instance: /TOP/mod/sc1
# ** Warning: (vsim-7) Failed to open readmem file "NI_Q.txt" in read mode.
# No such file or directory. (errno = ENOENT)    : C:/intelFPGA/18.1/VRL/OQPSK_MOD/simulation/modelsim/MEM_SIGNAL_ROM.sv(17)
#    Time: 0 ns  Iteration: 0  Instance: /TOP/mod/sc1
#          0 mod.i=      x,mod.qo=  x,mod.q=x,mod.s=  x,mod.c=  x
#          1 mod.i=      0,mod.qo=  0,mod.q=x,mod.s=  0,mod.c=  0
#          3 mod.i=     44,mod.qo= 84,mod.q=x,mod.s= 12,mod.c= 62
#          7 mod.i=     44,mod.qo= 84,mod.q=x,mod.s= 35,mod.c= 53
#          9 mod.i=     44,mod.qo= 84,mod.q=x,mod.s= 53,mod.c= 35
#         11 mod.i=     44,mod.qo= 84,mod.q=x,mod.s= 62,mod.c= 12
#         13 mod.i=     44,mod.qo= 84,mod.q=x,mod.s= 62,mod.c=116
#         15 mod.i=     44,mod.qo= 84,mod.q=x,mod.s= 53,mod.c= 93
#         17 mod.i=     44,mod.qo= 84,mod.q=x,mod.s= 35,mod.c= 75
#         19 mod.i=     44,mod.qo= 84,mod.q=x,mod.s= 12,mod.c= 66
#         21 mod.i=     44,mod.qo= 84,mod.q=x,mod.s=116,mod.c= 66
#         23 mod.i=     44,mod.qo= 84,mod.q=x,mod.s= 93,mod.c= 75
#         25 mod.i=     44,mod.qo= 84,mod.q=x,mod.s= 75,mod.c= 93
#         27 mod.i=     44,mod.qo= 84,mod.q=x,mod.s= 66,mod.c=116
#         29 mod.i=     44,mod.qo= 84,mod.q=x,mod.s= 66,mod.c= 12
#         31 mod.i=     44,mod.qo= 84,mod.q=x,mod.s= 75,mod.c= 35
#         33 mod.i=     44,mod.qo= 84,mod.q=x,mod.s= 93,mod.c= 53
#         35 mod.i=     44,mod.qo= 84,mod.q=x,mod.s=116,mod.c= 62
#         37 mod.i=     44,mod.qo= 84,mod.q=x,mod.s= 12,mod.c= 62
#         41 mod.i=     44,mod.qo= 84,mod.q=x,mod.s= 35,mod.c= 53
#         43 mod.i=     44,mod.qo= 84,mod.q=x,mod.s= 53,mod.c= 35
#         45 mod.i=     44,mod.qo= 84,mod.q=x,mod.s= 62,mod.c= 12
#         47 mod.i=     44,mod.qo= 84,mod.q=x,mod.s= 62,mod.c=116
#         49 mod.i=     44,mod.qo= 84,mod.q=x,mod.s= 53,mod.c= 93
#         51 mod.i=     44,mod.qo= 84,mod.q=x,mod.s= 35,mod.c= 75
#         53 mod.i=     44,mod.qo= 84,mod.q=x,mod.s= 12,mod.c= 66
#         55 mod.i=     44,mod.qo= 84,mod.q=x,mod.s=116,mod.c= 66
#         57 mod.i=     44,mod.qo= 84,mod.q=x,mod.s= 93,mod.c= 75
#         59 mod.i=     44,mod.qo= 84,mod.q=x,mod.s= 75,mod.c= 93
#         61 mod.i=     44,mod.qo= 84,mod.q=x,mod.s= 66,mod.c=116
#         63 mod.i=     44,mod.qo= 84,mod.q=x,mod.s= 66,mod.c= 12
#         65 mod.i=     44,mod.qo= 84,mod.q=x,mod.s= 75,mod.c= 35
#         67 mod.i=     44,mod.qo= 84,mod.q=x,mod.s= 93,mod.c= 53
#         69 mod.i=     44,mod.qo= 84,mod.q=x,mod.s=116,mod.c= 62
#         71 mod.i=     44,mod.qo= 84,mod.q=x,mod.s= 12,mod.c= 62
#         75 mod.i=     44,mod.qo= 84,mod.q=x,mod.s= 35,mod.c= 53
#         77 mod.i=     44,mod.qo= 84,mod.q=x,mod.s= 53,mod.c= 35
#         79 mod.i=     44,mod.qo= 84,mod.q=x,mod.s= 62,mod.c= 12
#         81 mod.i=     44,mod.qo= 84,mod.q=x,mod.s= 62,mod.c=116
#         83 mod.i=     44,mod.qo= 84,mod.q=x,mod.s= 53,mod.c= 93
#         85 mod.i=     44,mod.qo= 84,mod.q=x,mod.s= 35,mod.c= 75
#         87 mod.i=     44,mod.qo= 84,mod.q=x,mod.s= 12,mod.c= 66
#         89 mod.i=     44,mod.qo= 84,mod.q=x,mod.s=116,mod.c= 66
#         91 mod.i=     44,mod.qo= 84,mod.q=x,mod.s= 93,mod.c= 75
#         93 mod.i=     44,mod.qo= 84,mod.q=x,mod.s= 75,mod.c= 93
#         95 mod.i=     44,mod.qo= 84,mod.q=x,mod.s= 66,mod.c=116
#         97 mod.i=     44,mod.qo= 84,mod.q=x,mod.s= 66,mod.c= 12
#         99 mod.i=     44,mod.qo= 84,mod.q=x,mod.s= 75,mod.c= 35
run
#        101 mod.i=     44,mod.qo= 84,mod.q=x,mod.s= 93,mod.c= 53
#        103 mod.i=     44,mod.qo= 84,mod.q=x,mod.s=116,mod.c= 62
#        105 mod.i=     44,mod.qo= 84,mod.q=x,mod.s= 12,mod.c= 62
#        109 mod.i=     44,mod.qo= 84,mod.q=x,mod.s= 35,mod.c= 53
#        111 mod.i=     44,mod.qo= 84,mod.q=x,mod.s= 53,mod.c= 35
#        113 mod.i=     44,mod.qo= 84,mod.q=x,mod.s= 62,mod.c= 12
#        115 mod.i=     44,mod.qo= 84,mod.q=x,mod.s= 62,mod.c=116
#        117 mod.i=     44,mod.qo= 84,mod.q=x,mod.s= 53,mod.c= 93
#        119 mod.i=     44,mod.qo= 84,mod.q=x,mod.s= 35,mod.c= 75
#        121 mod.i=     44,mod.qo= 84,mod.q=x,mod.s= 12,mod.c= 66
#        123 mod.i=     44,mod.qo= 84,mod.q=x,mod.s=116,mod.c= 66
#        125 mod.i=     44,mod.qo= 84,mod.q=x,mod.s= 93,mod.c= 75
#        127 mod.i=     44,mod.qo= 84,mod.q=x,mod.s= 75,mod.c= 93
#        129 mod.i=     44,mod.qo= 84,mod.q=x,mod.s= 66,mod.c=116
#        131 mod.i=     44,mod.qo= 84,mod.q=x,mod.s= 66,mod.c= 12
#        133 mod.i=     44,mod.qo= 84,mod.q=x,mod.s= 75,mod.c= 35
#        135 mod.i=     44,mod.qo= 84,mod.q=x,mod.s= 93,mod.c= 53
#        137 mod.i=     44,mod.qo= 84,mod.q=x,mod.s=116,mod.c= 62
#        139 mod.i=     44,mod.qo= 84,mod.q=x,mod.s= 12,mod.c= 62
#        143 mod.i=     44,mod.qo= 84,mod.q=x,mod.s= 35,mod.c= 53
#        145 mod.i=     44,mod.qo= 84,mod.q=x,mod.s= 53,mod.c= 35
#        147 mod.i=     44,mod.qo= 84,mod.q=x,mod.s= 62,mod.c= 12
#        149 mod.i=     44,mod.qo= 84,mod.q=x,mod.s= 62,mod.c=116
#        151 mod.i=     44,mod.qo= 84,mod.q=x,mod.s= 53,mod.c= 93
#        153 mod.i=     44,mod.qo= 84,mod.q=x,mod.s= 35,mod.c= 75
#        155 mod.i=     44,mod.qo= 84,mod.q=x,mod.s= 12,mod.c= 66
#        157 mod.i=     44,mod.qo= 84,mod.q=x,mod.s=116,mod.c= 66
#        159 mod.i=     44,mod.qo= 84,mod.q=x,mod.s= 93,mod.c= 75
#        160 mod.i=     44,mod.qo= 84,mod.q=1,mod.s= 93,mod.c= 75
#        161 mod.i=     44,mod.qo= 44,mod.q=1,mod.s= 75,mod.c= 93
#        163 mod.i=     44,mod.qo= 44,mod.q=1,mod.s= 66,mod.c=116
#        165 mod.i=     44,mod.qo= 44,mod.q=1,mod.s= 66,mod.c= 12
#        167 mod.i=     44,mod.qo= 44,mod.q=1,mod.s= 75,mod.c= 35
#        169 mod.i=     44,mod.qo= 44,mod.q=1,mod.s= 93,mod.c= 53
#        171 mod.i=     44,mod.qo= 44,mod.q=1,mod.s=116,mod.c= 62
#        173 mod.i=     44,mod.qo= 44,mod.q=1,mod.s= 12,mod.c= 62
#        177 mod.i=     44,mod.qo= 44,mod.q=1,mod.s= 35,mod.c= 53
#        179 mod.i=     44,mod.qo= 44,mod.q=1,mod.s= 53,mod.c= 35
#        181 mod.i=     44,mod.qo= 44,mod.q=1,mod.s= 62,mod.c= 12
#        183 mod.i=     44,mod.qo= 44,mod.q=1,mod.s= 62,mod.c=116
#        185 mod.i=     44,mod.qo= 44,mod.q=1,mod.s= 53,mod.c= 93
#        187 mod.i=     44,mod.qo= 44,mod.q=1,mod.s= 35,mod.c= 75
#        189 mod.i=     44,mod.qo= 44,mod.q=1,mod.s= 12,mod.c= 66
#        191 mod.i=     44,mod.qo= 44,mod.q=1,mod.s=116,mod.c= 66
#        193 mod.i=     44,mod.qo= 44,mod.q=1,mod.s= 93,mod.c= 75
#        195 mod.i=     44,mod.qo= 44,mod.q=1,mod.s= 75,mod.c= 93
#        197 mod.i=     44,mod.qo= 44,mod.q=1,mod.s= 66,mod.c=116
#        199 mod.i=     44,mod.qo= 44,mod.q=1,mod.s= 66,mod.c= 12
run
#        201 mod.i=     44,mod.qo= 44,mod.q=1,mod.s= 75,mod.c= 35
#        203 mod.i=     44,mod.qo= 44,mod.q=1,mod.s= 93,mod.c= 53
#        205 mod.i=     44,mod.qo= 44,mod.q=1,mod.s=116,mod.c= 62
#        207 mod.i=     44,mod.qo= 44,mod.q=1,mod.s= 12,mod.c= 62
#        211 mod.i=     44,mod.qo= 44,mod.q=1,mod.s= 35,mod.c= 53
#        213 mod.i=     44,mod.qo= 44,mod.q=1,mod.s= 53,mod.c= 35
#        215 mod.i=     44,mod.qo= 44,mod.q=1,mod.s= 62,mod.c= 12
#        217 mod.i=     44,mod.qo= 44,mod.q=1,mod.s= 62,mod.c=116
#        219 mod.i=     44,mod.qo= 44,mod.q=1,mod.s= 53,mod.c= 93
#        221 mod.i=     44,mod.qo= 44,mod.q=1,mod.s= 35,mod.c= 75
#        223 mod.i=     44,mod.qo= 44,mod.q=1,mod.s= 12,mod.c= 66
#        225 mod.i=     44,mod.qo= 44,mod.q=1,mod.s=116,mod.c= 66
#        227 mod.i=     44,mod.qo= 44,mod.q=1,mod.s= 93,mod.c= 75
#        229 mod.i=     44,mod.qo= 44,mod.q=1,mod.s= 75,mod.c= 93
#        231 mod.i=     44,mod.qo= 44,mod.q=1,mod.s= 66,mod.c=116
#        233 mod.i=     44,mod.qo= 44,mod.q=1,mod.s= 66,mod.c= 12
#        235 mod.i=     44,mod.qo= 44,mod.q=1,mod.s= 75,mod.c= 35
#        237 mod.i=     44,mod.qo= 44,mod.q=1,mod.s= 93,mod.c= 53
#        239 mod.i=     44,mod.qo= 44,mod.q=1,mod.s=116,mod.c= 62
#        241 mod.i=     44,mod.qo= 44,mod.q=1,mod.s= 12,mod.c= 62
#        245 mod.i=     44,mod.qo= 44,mod.q=1,mod.s= 35,mod.c= 53
#        247 mod.i=     44,mod.qo= 44,mod.q=1,mod.s= 53,mod.c= 35
#        249 mod.i=     44,mod.qo= 44,mod.q=1,mod.s= 62,mod.c= 12
#        251 mod.i=     44,mod.qo= 44,mod.q=1,mod.s= 62,mod.c=116
#        253 mod.i=     44,mod.qo= 44,mod.q=1,mod.s= 53,mod.c= 93
#        255 mod.i=     44,mod.qo= 44,mod.q=1,mod.s= 35,mod.c= 75
#        257 mod.i=     44,mod.qo= 44,mod.q=1,mod.s= 12,mod.c= 66
#        259 mod.i=     44,mod.qo= 44,mod.q=1,mod.s=116,mod.c= 66
#        261 mod.i=     44,mod.qo= 44,mod.q=1,mod.s= 93,mod.c= 75
#        263 mod.i=     44,mod.qo= 44,mod.q=1,mod.s= 75,mod.c= 93
#        265 mod.i=     44,mod.qo= 44,mod.q=1,mod.s= 66,mod.c=116
#        267 mod.i=     44,mod.qo= 44,mod.q=1,mod.s= 66,mod.c= 12
#        269 mod.i=     44,mod.qo= 44,mod.q=1,mod.s= 75,mod.c= 35
#        271 mod.i=     44,mod.qo= 44,mod.q=1,mod.s= 93,mod.c= 53
#        273 mod.i=     44,mod.qo= 44,mod.q=1,mod.s=116,mod.c= 62
#        275 mod.i=     44,mod.qo= 44,mod.q=1,mod.s= 12,mod.c= 62
#        279 mod.i=     44,mod.qo= 44,mod.q=1,mod.s= 35,mod.c= 53
#        281 mod.i=     44,mod.qo= 44,mod.q=1,mod.s= 53,mod.c= 35
#        283 mod.i=     44,mod.qo= 44,mod.q=1,mod.s= 62,mod.c= 12
#        285 mod.i=     44,mod.qo= 44,mod.q=1,mod.s= 62,mod.c=116
#        287 mod.i=     44,mod.qo= 44,mod.q=1,mod.s= 53,mod.c= 93
#        289 mod.i=     44,mod.qo= 44,mod.q=1,mod.s= 35,mod.c= 75
#        291 mod.i=     44,mod.qo= 44,mod.q=1,mod.s= 12,mod.c= 66
#        293 mod.i=     44,mod.qo= 44,mod.q=1,mod.s=116,mod.c= 66
#        295 mod.i=     44,mod.qo= 44,mod.q=1,mod.s= 93,mod.c= 75
#        297 mod.i=     44,mod.qo= 44,mod.q=1,mod.s= 75,mod.c= 93
#        299 mod.i=     44,mod.qo= 44,mod.q=1,mod.s= 66,mod.c=116
run
#        301 mod.i=     44,mod.qo= 44,mod.q=1,mod.s= 66,mod.c= 12
#        303 mod.i=     44,mod.qo= 44,mod.q=1,mod.s= 75,mod.c= 35
#        305 mod.i=     44,mod.qo= 44,mod.q=1,mod.s= 93,mod.c= 53
#        307 mod.i=     44,mod.qo= 44,mod.q=1,mod.s=116,mod.c= 62
#        309 mod.i=     44,mod.qo= 44,mod.q=1,mod.s= 12,mod.c= 62
#        313 mod.i=     44,mod.qo= 44,mod.q=1,mod.s= 35,mod.c= 53
#        315 mod.i=     44,mod.qo= 44,mod.q=1,mod.s= 53,mod.c= 35
#        317 mod.i=     44,mod.qo= 44,mod.q=1,mod.s= 62,mod.c= 12
#        319 mod.i=     44,mod.qo= 44,mod.q=1,mod.s= 62,mod.c=116
#        321 mod.i=     44,mod.qo= 44,mod.q=1,mod.s= 53,mod.c= 93
#        323 mod.i=     84,mod.qo= 44,mod.q=1,mod.s= 35,mod.c= 75
#        325 mod.i=     84,mod.qo= 44,mod.q=1,mod.s= 12,mod.c= 66
#        327 mod.i=     84,mod.qo= 44,mod.q=1,mod.s=116,mod.c= 66
#        329 mod.i=     84,mod.qo= 44,mod.q=1,mod.s= 93,mod.c= 75
#        331 mod.i=     84,mod.qo= 44,mod.q=1,mod.s= 75,mod.c= 93
#        333 mod.i=     84,mod.qo= 44,mod.q=1,mod.s= 66,mod.c=116
#        335 mod.i=     84,mod.qo= 44,mod.q=1,mod.s= 66,mod.c= 12
#        337 mod.i=     84,mod.qo= 44,mod.q=1,mod.s= 75,mod.c= 35
#        339 mod.i=     84,mod.qo= 44,mod.q=1,mod.s= 93,mod.c= 53
#        341 mod.i=     84,mod.qo= 44,mod.q=1,mod.s=116,mod.c= 62
#        343 mod.i=     84,mod.qo= 44,mod.q=1,mod.s= 12,mod.c= 62
#        347 mod.i=     84,mod.qo= 44,mod.q=1,mod.s= 35,mod.c= 53
#        349 mod.i=     84,mod.qo= 44,mod.q=1,mod.s= 53,mod.c= 35
#        351 mod.i=     84,mod.qo= 44,mod.q=1,mod.s= 62,mod.c= 12
#        353 mod.i=     84,mod.qo= 44,mod.q=1,mod.s= 62,mod.c=116
#        355 mod.i=     84,mod.qo= 44,mod.q=1,mod.s= 53,mod.c= 93
#        357 mod.i=     84,mod.qo= 44,mod.q=1,mod.s= 35,mod.c= 75
#        359 mod.i=     84,mod.qo= 44,mod.q=1,mod.s= 12,mod.c= 66
#        361 mod.i=     84,mod.qo= 44,mod.q=1,mod.s=116,mod.c= 66
#        363 mod.i=     84,mod.qo= 44,mod.q=1,mod.s= 93,mod.c= 75
#        365 mod.i=     84,mod.qo= 44,mod.q=1,mod.s= 75,mod.c= 93
#        367 mod.i=     84,mod.qo= 44,mod.q=1,mod.s= 66,mod.c=116
#        369 mod.i=     84,mod.qo= 44,mod.q=1,mod.s= 66,mod.c= 12
#        371 mod.i=     84,mod.qo= 44,mod.q=1,mod.s= 75,mod.c= 35
#        373 mod.i=     84,mod.qo= 44,mod.q=1,mod.s= 93,mod.c= 53
#        375 mod.i=     84,mod.qo= 44,mod.q=1,mod.s=116,mod.c= 62
#        377 mod.i=     84,mod.qo= 44,mod.q=1,mod.s= 12,mod.c= 62
#        381 mod.i=     84,mod.qo= 44,mod.q=1,mod.s= 35,mod.c= 53
#        383 mod.i=     84,mod.qo= 44,mod.q=1,mod.s= 53,mod.c= 35
#        385 mod.i=     84,mod.qo= 44,mod.q=1,mod.s= 62,mod.c= 12
#        387 mod.i=     84,mod.qo= 44,mod.q=1,mod.s= 62,mod.c=116
#        389 mod.i=     84,mod.qo= 44,mod.q=1,mod.s= 53,mod.c= 93
#        391 mod.i=     84,mod.qo= 44,mod.q=1,mod.s= 35,mod.c= 75
#        393 mod.i=     84,mod.qo= 44,mod.q=1,mod.s= 12,mod.c= 66
#        395 mod.i=     84,mod.qo= 44,mod.q=1,mod.s=116,mod.c= 66
#        397 mod.i=     84,mod.qo= 44,mod.q=1,mod.s= 93,mod.c= 75
#        399 mod.i=     84,mod.qo= 44,mod.q=1,mod.s= 75,mod.c= 93
run
#        401 mod.i=     84,mod.qo= 44,mod.q=1,mod.s= 66,mod.c=116
#        403 mod.i=     84,mod.qo= 44,mod.q=1,mod.s= 66,mod.c= 12
#        405 mod.i=     84,mod.qo= 44,mod.q=1,mod.s= 75,mod.c= 35
#        407 mod.i=     84,mod.qo= 44,mod.q=1,mod.s= 93,mod.c= 53
#        409 mod.i=     84,mod.qo= 44,mod.q=1,mod.s=116,mod.c= 62
#        411 mod.i=     84,mod.qo= 44,mod.q=1,mod.s= 12,mod.c= 62
#        415 mod.i=     84,mod.qo= 44,mod.q=1,mod.s= 35,mod.c= 53
#        417 mod.i=     84,mod.qo= 44,mod.q=1,mod.s= 53,mod.c= 35
#        419 mod.i=     84,mod.qo= 44,mod.q=1,mod.s= 62,mod.c= 12
#        421 mod.i=     84,mod.qo= 44,mod.q=1,mod.s= 62,mod.c=116
#        423 mod.i=     84,mod.qo= 44,mod.q=1,mod.s= 53,mod.c= 93
#        425 mod.i=     84,mod.qo= 44,mod.q=1,mod.s= 35,mod.c= 75
#        427 mod.i=     84,mod.qo= 44,mod.q=1,mod.s= 12,mod.c= 66
#        429 mod.i=     84,mod.qo= 44,mod.q=1,mod.s=116,mod.c= 66
#        431 mod.i=     84,mod.qo= 44,mod.q=1,mod.s= 93,mod.c= 75
#        433 mod.i=     84,mod.qo= 44,mod.q=1,mod.s= 75,mod.c= 93
#        435 mod.i=     84,mod.qo= 44,mod.q=1,mod.s= 66,mod.c=116
#        437 mod.i=     84,mod.qo= 44,mod.q=1,mod.s= 66,mod.c= 12
#        439 mod.i=     84,mod.qo= 44,mod.q=1,mod.s= 75,mod.c= 35
#        441 mod.i=     84,mod.qo= 44,mod.q=1,mod.s= 93,mod.c= 53
#        443 mod.i=     84,mod.qo= 44,mod.q=1,mod.s=116,mod.c= 62
#        445 mod.i=     84,mod.qo= 44,mod.q=1,mod.s= 12,mod.c= 62
#        449 mod.i=     84,mod.qo= 44,mod.q=1,mod.s= 35,mod.c= 53
#        451 mod.i=     84,mod.qo= 44,mod.q=1,mod.s= 53,mod.c= 35
#        453 mod.i=     84,mod.qo= 44,mod.q=1,mod.s= 62,mod.c= 12
#        455 mod.i=     84,mod.qo= 44,mod.q=1,mod.s= 62,mod.c=116
#        457 mod.i=     84,mod.qo= 44,mod.q=1,mod.s= 53,mod.c= 93
#        459 mod.i=     84,mod.qo= 44,mod.q=1,mod.s= 35,mod.c= 75
#        461 mod.i=     84,mod.qo= 44,mod.q=1,mod.s= 12,mod.c= 66
#        463 mod.i=     84,mod.qo= 44,mod.q=1,mod.s=116,mod.c= 66
#        465 mod.i=     84,mod.qo= 44,mod.q=1,mod.s= 93,mod.c= 75
#        467 mod.i=     84,mod.qo= 44,mod.q=1,mod.s= 75,mod.c= 93
#        469 mod.i=     84,mod.qo= 44,mod.q=1,mod.s= 66,mod.c=116
#        471 mod.i=     84,mod.qo= 44,mod.q=1,mod.s= 66,mod.c= 12
#        473 mod.i=     84,mod.qo= 44,mod.q=1,mod.s= 75,mod.c= 35
#        475 mod.i=     84,mod.qo= 44,mod.q=1,mod.s= 93,mod.c= 53
#        477 mod.i=     84,mod.qo= 44,mod.q=1,mod.s=116,mod.c= 62
#        479 mod.i=     84,mod.qo= 44,mod.q=1,mod.s= 12,mod.c= 62
#        483 mod.i=     84,mod.qo= 44,mod.q=1,mod.s= 35,mod.c= 53
#        485 mod.i=     84,mod.qo= 44,mod.q=1,mod.s= 53,mod.c= 35
#        487 mod.i=     84,mod.qo= 44,mod.q=1,mod.s= 62,mod.c= 12
#        489 mod.i=     84,mod.qo= 44,mod.q=1,mod.s= 62,mod.c=116
#        491 mod.i=     84,mod.qo= 44,mod.q=1,mod.s= 53,mod.c= 93
#        493 mod.i=     84,mod.qo= 44,mod.q=1,mod.s= 35,mod.c= 75
#        495 mod.i=     84,mod.qo= 44,mod.q=1,mod.s= 12,mod.c= 66
#        497 mod.i=     84,mod.qo= 44,mod.q=1,mod.s=116,mod.c= 66
#        499 mod.i=     84,mod.qo= 44,mod.q=1,mod.s= 93,mod.c= 75
run
#        501 mod.i=     84,mod.qo= 44,mod.q=1,mod.s= 75,mod.c= 93
#        503 mod.i=     84,mod.qo= 44,mod.q=1,mod.s= 66,mod.c=116
#        505 mod.i=     84,mod.qo= 44,mod.q=1,mod.s= 66,mod.c= 12
#        507 mod.i=     84,mod.qo= 44,mod.q=1,mod.s= 75,mod.c= 35
#        509 mod.i=     84,mod.qo= 44,mod.q=1,mod.s= 93,mod.c= 53
#        511 mod.i=     84,mod.qo= 44,mod.q=1,mod.s=116,mod.c= 62
#        513 mod.i=     84,mod.qo= 44,mod.q=1,mod.s= 12,mod.c= 62
#        517 mod.i=     84,mod.qo= 44,mod.q=1,mod.s= 35,mod.c= 53
#        519 mod.i=     84,mod.qo= 44,mod.q=1,mod.s= 53,mod.c= 35
#        521 mod.i=     84,mod.qo= 44,mod.q=1,mod.s= 62,mod.c= 12
#        523 mod.i=     84,mod.qo= 44,mod.q=1,mod.s= 62,mod.c=116
#        525 mod.i=     84,mod.qo= 44,mod.q=1,mod.s= 53,mod.c= 93
#        527 mod.i=     84,mod.qo= 44,mod.q=1,mod.s= 35,mod.c= 75
#        529 mod.i=     84,mod.qo= 44,mod.q=1,mod.s= 12,mod.c= 66
#        531 mod.i=     84,mod.qo= 44,mod.q=1,mod.s=116,mod.c= 66
#        533 mod.i=     84,mod.qo= 44,mod.q=1,mod.s= 93,mod.c= 75
#        535 mod.i=     84,mod.qo= 44,mod.q=1,mod.s= 75,mod.c= 93
#        537 mod.i=     84,mod.qo= 44,mod.q=1,mod.s= 66,mod.c=116
#        539 mod.i=     84,mod.qo= 44,mod.q=1,mod.s= 66,mod.c= 12
#        541 mod.i=     84,mod.qo= 44,mod.q=1,mod.s= 75,mod.c= 35
#        543 mod.i=     84,mod.qo= 44,mod.q=1,mod.s= 93,mod.c= 53
#        545 mod.i=     84,mod.qo= 44,mod.q=1,mod.s=116,mod.c= 62
#        547 mod.i=     84,mod.qo= 44,mod.q=1,mod.s= 12,mod.c= 62
#        551 mod.i=     84,mod.qo= 44,mod.q=1,mod.s= 35,mod.c= 53
#        553 mod.i=     84,mod.qo= 44,mod.q=1,mod.s= 53,mod.c= 35
#        555 mod.i=     84,mod.qo= 44,mod.q=1,mod.s= 62,mod.c= 12
#        557 mod.i=     84,mod.qo= 44,mod.q=1,mod.s= 62,mod.c=116
#        559 mod.i=     84,mod.qo= 44,mod.q=1,mod.s= 53,mod.c= 93
#        561 mod.i=     84,mod.qo= 44,mod.q=1,mod.s= 35,mod.c= 75
#        563 mod.i=     84,mod.qo= 44,mod.q=1,mod.s= 12,mod.c= 66
#        565 mod.i=     84,mod.qo= 44,mod.q=1,mod.s=116,mod.c= 66
#        567 mod.i=     84,mod.qo= 44,mod.q=1,mod.s= 93,mod.c= 75
#        569 mod.i=     84,mod.qo= 44,mod.q=1,mod.s= 75,mod.c= 93
#        571 mod.i=     84,mod.qo= 44,mod.q=1,mod.s= 66,mod.c=116
#        573 mod.i=     84,mod.qo= 44,mod.q=1,mod.s= 66,mod.c= 12
#        575 mod.i=     84,mod.qo= 44,mod.q=1,mod.s= 75,mod.c= 35
#        577 mod.i=     84,mod.qo= 44,mod.q=1,mod.s= 93,mod.c= 53
#        579 mod.i=     84,mod.qo= 44,mod.q=1,mod.s=116,mod.c= 62
#        581 mod.i=     84,mod.qo= 44,mod.q=1,mod.s= 12,mod.c= 62
#        585 mod.i=     84,mod.qo= 44,mod.q=1,mod.s= 35,mod.c= 53
#        587 mod.i=     84,mod.qo= 44,mod.q=1,mod.s= 53,mod.c= 35
#        589 mod.i=     84,mod.qo= 44,mod.q=1,mod.s= 62,mod.c= 12
#        591 mod.i=     84,mod.qo= 44,mod.q=1,mod.s= 62,mod.c=116
#        593 mod.i=     84,mod.qo= 44,mod.q=1,mod.s= 53,mod.c= 93
#        595 mod.i=     84,mod.qo= 44,mod.q=1,mod.s= 35,mod.c= 75
#        597 mod.i=     84,mod.qo= 44,mod.q=1,mod.s= 12,mod.c= 66
#        599 mod.i=     84,mod.qo= 44,mod.q=1,mod.s=116,mod.c= 66
run
#        601 mod.i=     84,mod.qo= 44,mod.q=1,mod.s= 93,mod.c= 75
#        603 mod.i=     84,mod.qo= 44,mod.q=1,mod.s= 75,mod.c= 93
#        605 mod.i=     84,mod.qo= 44,mod.q=1,mod.s= 66,mod.c=116
#        607 mod.i=     84,mod.qo= 44,mod.q=1,mod.s= 66,mod.c= 12
